{
	"version": 0,
	"ui": {
		"default_locale": "en-US",
		"prompt_suggestions": [
			{
				"title": [
					"Lithium-Ion Battery Technology",
					"basic working principles of lithium-ion batteries"
				],
				"content": "Explain the basic working principles of lithium-ion batteries. Discuss the historical development of lithium-ion batteries and their impact on modern technology."
			},
			{
				"title": [
					"Materials and Chemistry",
					"of Lithium-Ion Batteries"
				],
				"content": "Describe the materials used in the anode and cathode of lithium-ion batteries and their respective roles."
			},
			{
				"title": [
					"Tell me a fun fact",
					"about Lithium-Ion Batteries"
				],
				"content": "Tell me a random fun fact about Lithium-Ion Batteries"
			},
			{
				"title": [
					"Economic and Market Trends",
					"in Lithium-Ion Battery Industry"
				],
				"content": "Analyze the current market trends and economic factors influencing the lithium-ion battery industry. Discuss the supply chain challenges and geopolitical considerations related to the production of lithium-ion batteries."
			},
			{
				"title": [
					"Safety and Regulation",
					"of Lithium-Ion Batteries"
				],
				"content": "Review the safety standards and regulatory frameworks governing the use of lithium-ion batteries."
			},
			{
				"title": [
					"Overcome procrastination",
					"give me tips"
				],
				"content": "Could you start by asking me about instances when I procrastinate the most and then give me some suggestions to overcome it?"
			}
		],
		"default_user_role": "user"
	}
}