{
  "_data_files": [
    {
      "filename": "data-00000-of-00001.arrow"
    }
  ],
  "_fingerprint": "ee3f6d2993141054",
  "_format_columns": null,
  "_format_kwargs": {},
  "_format_type": null,
  "_output_all_columns": false,
  "_split": null
}